…
``` r
# Input RNASeq File - post internal standard correction
input_file <- "/Users/jamesmullet/updated_comm_dyn_wide_counts.tsv"

# Combined metadata key #
metadata_table <- "/Users/jamesmullet/pooled_key.csv"

# Annotations file of all genomes #
annotation_file <- '/Users/jamesmullet/updated_comm_dyn_annotations_v2.xlsx'
annotations <- read_excel(annotation_file)
annotations
```

    ## # A tibble: 19,501 × 48
    ##    em_ID     organism ID    seq_id source type   start    end score strand phase
    ##    <chr>     <chr>    <chr> <chr>  <chr>  <chr>  <dbl>  <dbl> <chr> <chr>  <dbl>
    ##  1 batch10_… Alterom… 1_18… batch… Prodi… CDS   2.21e6 2.21e6 69.00 -          0
    ##  2 batch10_… Alterom… 1_18… batch… Prodi… CDS   2.21e6 2.22e6 123.… -          0
    ##  3 batch10_… Alterom… 1_36… batch… Prodi… CDS   4.24e6 4.25e6 151.… +          0
    ##  4 batch10_… Marinob… 1_15… batch… Prodi… CDS   1.71e6 1.71e6 89.99 +          0
    ##  5 batch10_… Thalass… 1_39… batch… Prodi… CDS   4.39e5 4.40e5 127.… -          0
    ##  6 batch10.… Pseudoh… 1_15… batch… Prodi… CDS   1.64e6 1.64e6 115.… -          0
    ##  7 batch10_… Alterom… 1_11… batch… Prodi… CDS   1.32e6 1.33e6 376.… +          0
    ##  8 batch10_… Thalass… 1_35… batch… Prodi… CDS   3.85e6 3.85e6 422.… -          0
    ##  9 batch10_… Marinob… 1_29… batch… Prodi… CDS   3.23e6 3.23e6 458.… -          0
    ## 10 batch10.… Pseudoh… 1_46… batch… Prodi… CDS   4.97e5 5.00e5 555.… -          0
    ## # ℹ 19,491 more rows
    ## # ℹ 37 more variables: attributes <chr>, conf <dbl>, cscore <dbl>,
    ## #   em_BRITE <chr>, em_BiGG_Reaction <chr>, em_CAZy <chr>, em_COG_cat <chr>,
    ## #   em_EC <chr>, em_GOs <chr>, em_KEGG_Module <chr>, em_KEGG_Pathway <chr>,
    ## #   em_KEGG_Reaction <chr>, em_KEGG_TC <chr>, em_KEGG_ko <chr>,
    ## #   em_KEGG_rclass <chr>, em_OGs <chr>, em_PFAMs <chr>,
    ## #   em_Preferred_name <chr>, em_desc <chr>, em_evalue <dbl>, …
…
